{
    "/api/*": {
        "target": "http://localhost:3000",
        "secure": false,
        "logLevel": "debug",
        "changeOrigin": true
    },
    "/public/*": {
        "target": "http://localhost:3000",
        "secure": false,
        "logLevel": "debug",
        "changeOrigin": true
    }

}