{
    "client_id": "490172517063-9gfc8dqgugbh5dt6qql8nl8c2rmgqk2g.apps.googleusercontent.com",
    "client_secret": "vo7O7t5hHfPCfWlJQOwyjRnV",
    "refresh_token": "1/31GapMUMOZWu7QfVwEw2wzVXUd5E4ro66WyzyWGxgps"
}