{
    "description":"class:admin topic:game - to control game module",
    "type":"object",
    "required":["class", "topic", "cmd", "datetime"],
    "properties":{
        "class":{"const":"admin"},
        "topic":{"const":"game"},
        "cmd":{"enum":["load_model", "load_game", "load_config", "set_action", "shutdown", "broadcast", "reset"]},
        "option":{"type" : "object"},
        "datetime":{"format" : "date-time"}
    }
}
